973447 150121
203022 179402
308928 319573
292150 513738
619756 718653
342078 592756
331412 142391
594815 518260
107463 568581
613206 978637
286607 5807
116001 792481
810991 263285
519167 766460
699930 9151
868211 308908
659937 989308
66527 458951
325383 440260
961936 436258
420000 906990
917606 386529
527397 963779
562488 771779
576735 143464
26169 403321
122961 583287
537079 601670
773156 652596
846294 563018
890206 215425
729923 940549
515912 198129
247702 64529
19895 845143
223416 545909
549621 59200
746854 881229
8080 852792
949695 193375
936469 537961
45215 235886
917631 703867
21344 57321
828011 107139
710322 868636
580379 771523
2137 193717
88612 303597
376618 143681
107875 924158
689173 428099
479017 965458
14131 459401
895362 789665
714917 770899
569316 544033
753448 966332
747815 399853
14792 174558
519148 220052
887144 30806
349830 893645
195754 501831
569811 197083
571809 151817
13697 755257
231106 81562
604796 892122
708650 522901
561841 955160
350378 743562
281390 636725
480276 953085
178334 664684
772501 559227
603057 401335
839834 931865
841599 85195
639330 404686
885872 986237
119568 183257
97630 882682
2281 900462
688254 828282
471479 334642
141609 707637
22768 256671
156790 109172
631774 915138
641086 823621
286320 29544
507117 653495
78969 131296
452785 90276
63211 400701
353117 607347
18316 815453
752042 514974
131647 849269
501107 959748
815218 515747
564869 659250
443966 147509
331531 269986
751686 109877
841403 701247
24969 290707
892263 537312
343307 1507
516461 603538
880480 222105
968322 989971
62960 476808
944868 718662
521862 36302
223775 246869
736510 616559
278081 640858
657163 340506
224603 544074
284563 168219
92430 673553
413528 943156
424534 975655
605456 441097
605878 784732
388398 106583
735723 449884
100248 151129
101270 374223
284727 75464
960258 303415
407541 66023
449012 136040
886581 415616
621460 842792
312870 230449
810217 100797
438799 383909
988502 105244
442486 904010
586834 321060
994900 112580
583583 239540
35017 411394
464683 478831
651883 214126
645309 859124
547269 268623
731372 743511
364962 729846
226606 826761
688959 239588
582282 925077
33001 303475
154925 865639
350081 72752
712963 226116
942609 624126
236849 661748
868775 494820
955114 666734
982781 272098
718409 799852
593863 576200
611864 697930
977723 883802
868272 931677
95396 430429
301493 935911
500483 704616
703962 860181
118657 769455
212103 753276
258494 650714
873661 966991
53532 960790
98079 988515
436155 594051
875547 109613
764008 989658
412164 716239
61480 533626
609568 717489
634283 865709
891937 53689
705072 299894
102411 416424
966132 794988
399953 193669
341377 319450
235952 595509
25687 128268
595274 39369
633109 773294
460223 322356
805692 492911
675543 102559
56548 330853
825720 113411
129116 395776
796655 586692
241034 15412
915799 516387
622937 373655
388195 898105
67596 574976
276696 111488
802585 420390
941023 920408
6684 296376
951578 717265
493649 808861
11227 442824
423425 554082
307333 791140
224353 887384
196875 782177
339781 414505
