513838 67863 470
698965 738861 504
198386 417778 449
504159 246869 449
298375 895271 525
33279 774365 509
425914 876699 525
797522 820415 450
145766 97421 375
536898 246227 470
315199 447797 449
15820 537885 470
506435 953679 525
709762 610117 509
966276 191675 525
240099 319840 407
977512 158046 525
404679 588924 470
768763 17335 509
615571 907171 525
383419 486942 449
776384 625726 509
209660 856888 525
80490 175214 383
980259 521106 525
240267 76280 443
97849 830576 509
848676 997383 507
415996 991657 525
441917 616506 470
852267 386699 525
570689 640104 509
259709 969877 525
599316 879955 525
334615 122786 443
32150 638561 509
378236 64575 443
480207 97397 449
31086 910802 525
333588 357157 441
31825 841048 525
781129 288923 509
834022 435409 509
808186 940777 525
277021 29979 443
465832 862152 525
264152 504314 449
365707 715538 509
849171 671454 525
257828 896045 525
544687 781105 509
643104 616581 509
34132 638386 509
69339 934514 525
388589 658130 509
682077 775152 504
662253 404374 509
737922 486261 509
506572 235205 449
961629 389852 525
724417 355848 509
554092 6664 470
448487 164618 449
820105 528487 509
311894 725868 509
668611 855675 525
65867 137674 354
716676 235563 509
31199 293294 443
825304 551735 509
504528 43496 449
305409 240727 407
625591 564821 447
913949 352204 525
447946 199870 449
996430 101309 525
604010 169386 470
163518 97112 383
628978 927719 525
668884 563643 509
955069 96909 525
297187 309427 371
503844 430557 444
471381 650750 509
650635 363966 509
963928 204470 525
802805 585475 509
578297 493132 470
25491 568865 470
197440 225117 386
448984 409223 449
82584 289552 443
89778 814389 509
679261 97937 509
631255 303748 509
659737 843693 525
42286 68760 340
907116 300122 525
554977 537423 452
494578 278961 449
477154 682253 509
237986 554578 470
139177 530392 470
995961 775645 525
301884 728084 509
106707 496617 449
68824 622646 470
704752 432970 509
542532 895565 525
714274 727111 411
439113 134818 449
218439 134771 386
728645 267288 509
763836 725545 424
421587 316466 449
630278 314801 509
800246 69337 509
441906 643282 509
149679 844923 525
97558 832806 509
722202 857674 525
224187 668233 509
163326 50889 383
446633 513221 470
608793 819487 509
444347 210768 449
366152 1259 443
463496 70641 449
539535 544405 408
520275 747321 509
916702 45580 525
334105 488663 449
946898 368700 525
900734 491802 525
83244 774490 509
370191 121117 443
255069 58187 443
568764 977083 525
464648 564332 470
306151 137167 443
255209 928194 525
204462 448825 449
214640 923837 525
962266 136615 525
722970 373448 509
596641 544025 452
168425 106114 383
938594 480533 525
116516 141663 344
550272 894715 525
523614 410428 470
582021 660638 509
716498 637060 504
34645 584420 470
579689 789610 509
709318 505026 509
842701 627105 525
223857 297564 443
965280 155099 525
721932 95515 509
565880 649401 509
695080 224183 509
555498 893340 525
545141 503378 470
303062 59036 443
606363 671995 509
336475 66999 443
336334 168212 443
338991 224493 443
889589 921977 476
193874 524154 470
490210 130835 449
186868 117536 383
582037 652112 509
667694 843247 525
476387 592680 470
29038 686672 509
980599 469783 525
348722 495314 449
335152 287337 389
626443 351680 509
232812 884480 525
464823 502582 426
733379 747812 424
783484 872460 525
7125 648493 509
701580 708194 504
419635 715661 509
892862 11015 525
459302 479783 444
907917 561838 525
427921 489865 444
894885 799408 525
902366 881072 445
974906 994101 427
922613 803660 525
694337 204066 509
118850 679767 509
684087 687986 398
976989 897106 507
210935 557169 470
339573 825369 509
440746 206425 449
210525 540192 470
118388 782932 509
511958 806864 509
807439 51605 509
402333 739127 509
921393 885089 476
889456 114714 525
274734 50833 443
714943 693876 504
897284 163026 525
256613 667147 509
415292 158339 449
626979 746962 504
930237 399169 525
423382 698022 509
227767 605686 470
671428 481387 509
722749 317638 509
415056 869713 525
572127 1343 470
197914 958047 525
147844 742360 509
980487 813264 525
433037 493298 444
950929 445669 525
90951 177332 383
860197 867421 388
443206 186832 449
512080 229862 470
547467 437797 470
595492 321761 470
350587 94284 443
707069 634899 504
337585 884717 525
489524 354306 449
208541 741000 509
326765 786816 509
791333 357390 509
401789 77019 443
951057 380844 525
879694 293374 525
327753 355500 441
552445 370843 470
697926 720353 504
329297 540273 470
680401 681048 336
586758 622720 447
